proj/mult_trace.vcd
$date
     Aug 01, 2016       17:06:34
$end

$version
 SystemC 2.3.1-Accellera --- Apr 30 2015 14:13:38
$end

$timescale
     1 ns
$end

$scope module SystemC $end
$var wire    1  aaaaa  Enable       $end
$var wire    1  aaaab  Done       $end
$var wire   32  aaaac  Operand1 [31:0]  $end
$var wire   32  aaaad  Operand2 [31:0]  $end
$var wire   32  aaaae  Result1 [31:0]  $end
$var wire   32  aaaaf  Result2 [31:0]  $end
$var wire    1  aaaag  Clock       $end
$upscope $end
$enddefinitions  $end

$comment
All initial values are dumped below at time 0 sec = 0 timescale units.
$end

$dumpvars
1aaaaa
0aaaab
b1 aaaac
b10000000000000000000000000000000 aaaad
b0 aaaae
b0 aaaaf
1aaaag
$end

#5
0aaaag

#10
1aaaag

#15
0aaaag

#20
1aaaag

#25
0aaaag

#30
1aaaag

#35
0aaaag

#40
1aaaag

#45
0aaaag

#50
1aaaag

#55
0aaaag

#60
1aaaag

#65
0aaaag

#70
1aaaag

#75
0aaaag

#80
1aaaag

#85
0aaaag

#90
1aaaag

#95
0aaaag

#100
1aaaag

#105
0aaaag

#110
1aaaag

#115
0aaaag

#120
1aaaag

#125
0aaaag

#130
1aaaag

#135
0aaaag

#140
b10000000000000000000000000000000 aaaae
1aaaag

#145
0aaaag

#150
1aaaag

#155
0aaaag

#160
0aaaaa
1aaaab
1aaaag

#165
0aaaag

#170
1aaaaa
0aaaab
b1000010000011011001101110011111 aaaac
1aaaag

#175
0aaaag

#180
1aaaag

#185
0aaaag

#190
1aaaag

#195
0aaaag

#200
1aaaag

#205
0aaaag

#210
1aaaag

#215
0aaaag

#220
1aaaag

#225
0aaaag

#230
1aaaag

#235
0aaaag

#240
1aaaag

#245
0aaaag

#250
1aaaag

#255
0aaaag

#260
1aaaag

#265
0aaaag

#270
1aaaag

#275
0aaaag

#280
1aaaag

#285
0aaaag

#290
1aaaag

#295
0aaaag

#300
1aaaag

#305
0aaaag

#310
1aaaag

#315
0aaaag

#320
b100001000001101100110111001111 aaaaf
1aaaag

#325
0aaaag

#330
1aaaag

#335
0aaaag

#340
0aaaaa
1aaaab
1aaaag

#345
0aaaag

#350
1aaaaa
0aaaab
b1000100011001001000101010000011 aaaac
1aaaag

#355
0aaaag

#360
1aaaag

#365
0aaaag

#370
1aaaag

#375
0aaaag

#380
1aaaag

#385
0aaaag

#390
1aaaag

#395
0aaaag

#400
1aaaag

#405
0aaaag

#410
1aaaag

#415
0aaaag

#420
1aaaag

#425
0aaaag

#430
1aaaag

#435
0aaaag

#440
1aaaag

#445
0aaaag

#450
1aaaag

#455
0aaaag

#460
1aaaag

#465
0aaaag

#470
1aaaag

#475
0aaaag

#480
1aaaag

#485
0aaaag

#490
1aaaag

#495
0aaaag

#500
b100010001100100100010101000001 aaaaf
1aaaag

#505
0aaaag

#510
1aaaag

#515
0aaaag

#520
0aaaaa
1aaaab
1aaaag

#525
0aaaag

#530
1aaaaa
0aaaab
b101101100110000101110001011000 aaaac
b11000000000000000000000000000000 aaaad
1aaaag

#535
0aaaag

#540
1aaaag

#545
0aaaag

#550
1aaaag

#555
0aaaag

#560
1aaaag

#565
0aaaag

#570
1aaaag

#575
0aaaag

#580
1aaaag

#585
0aaaag

#590
1aaaag

#595
0aaaag

#600
1aaaag

#605
0aaaag

#610
1aaaag

#615
0aaaag

#620
1aaaag

#625
0aaaag

#630
1aaaag

#635
0aaaag

#640
1aaaag

#645
0aaaag

#650
1aaaag

#655
0aaaag

#660
1aaaag

#665
0aaaag

#670
1aaaag

#675
0aaaag

#680
b0 aaaae
b100010001100100100010101000010 aaaaf
1aaaag

#685
0aaaag

#690
1aaaag

#695
0aaaag

#700
0aaaaa
1aaaab
1aaaag

#705
0aaaag

#710
1aaaaa
0aaaab
b11011010110110110101010011011 aaaac
b10100000000000000000000000000000 aaaad
1aaaag

#715
0aaaag

#720
1aaaag

#725
0aaaag

#730
1aaaag

#735
0aaaag

#740
1aaaag

#745
0aaaag

#750
1aaaag

#755
0aaaag

#760
1aaaag

#765
0aaaag

#770
1aaaag

#775
0aaaag

#780
1aaaag

#785
0aaaag

#790
1aaaag

#795
0aaaag

#800
1aaaag

#805
0aaaag

#810
1aaaag

#815
0aaaag

#820
1aaaag

#825
0aaaag

#830
1aaaag

#835
0aaaag

#840
1aaaag

#845
0aaaag

#850
1aaaag

#855
0aaaag

#860
b11100000000000000000000000000000 aaaae
b10001000110010010001010100000 aaaaf
1aaaag

#865
0aaaag

#870
1aaaag

#875
0aaaag

#880
0aaaaa
1aaaab
1aaaag

#885
0aaaag

#890
1aaaaa
0aaaab
b10011100010100111000010111000 aaaac
b11100000000000000000000000000000 aaaad
1aaaag

#895
0aaaag

#900
1aaaag

#905
0aaaag

#910
1aaaag

#915
0aaaag

#920
1aaaag

#925
0aaaag

#930
1aaaag

#935
0aaaag

#940
1aaaag

#945
0aaaag

#950
1aaaag

#955
0aaaag

#960
1aaaag

#965
0aaaag

#970
1aaaag

#975
0aaaag

#980
1aaaag

#985
0aaaag

#990
1aaaag

#995
0aaaag

#1000
1aaaag

#1005
0aaaag

#1010
1aaaag

#1015
0aaaag

#1020
1aaaag

#1025
0aaaag

#1030
1aaaag

#1035
0aaaag

#1040
b0 aaaae
b10001000110010010001010100001 aaaaf
1aaaag

#1045
0aaaag

#1050
1aaaag

#1055
0aaaag

#1060
0aaaaa
1aaaab
1aaaag

#1065
0aaaag

#1070
1aaaaa
0aaaab
b1100011011110101111100000000 aaaac
b10110000000000000000000000000000 aaaad
1aaaag

#1075
0aaaag

#1080
1aaaag

#1085
0aaaag

#1090
1aaaag

#1095
0aaaag

#1100
1aaaag

#1105
0aaaag

#1110
1aaaag

#1115
0aaaag

#1120
1aaaag

#1125
0aaaag

#1130
1aaaag

#1135
0aaaag

#1140
1aaaag

#1145
0aaaag

#1150
1aaaag

#1155
0aaaag

#1160
1aaaag

#1165
0aaaag

#1170
1aaaag

#1175
0aaaag

#1180
1aaaag

#1185
0aaaag

#1190
1aaaag

#1195
0aaaag

#1200
1aaaag

#1205
0aaaag

#1210
1aaaag

#1215
0aaaag

#1220
b1000100011001001000101010000 aaaaf
1aaaag

#1225
0aaaag

#1230
1aaaag

#1235
0aaaag

#1240
0aaaaa
1aaaab
1aaaag

#1245
0aaaag

#1250
1aaaaa
0aaaab
b10 aaaac
b10 aaaad
1aaaag

#1255
0aaaag

#1260
1aaaag

#1265
0aaaag

#1270
1aaaag

#1275
0aaaag

#1280
1aaaag

#1285
0aaaag

#1290
1aaaag

#1295
0aaaag

#1300
1aaaag

#1305
0aaaag

#1310
1aaaag

#1315
0aaaag

#1320
1aaaag

#1325
0aaaag

#1330
1aaaag

#1335
0aaaag

#1340
1aaaag

#1345
0aaaag

#1350
1aaaag

#1355
0aaaag

#1360
1aaaag

#1365
0aaaag

#1370
1aaaag

#1375
0aaaag

#1380
1aaaag

#1385
0aaaag

#1390
1aaaag

#1395
0aaaag

#1400
b100 aaaae
b0 aaaaf
1aaaag

#1405
0aaaag

#1410
1aaaag

#1415
0aaaag

#1420
0aaaaa
1aaaab
1aaaag

#1425
0aaaag

#1430
1aaaaa
0aaaab
b100 aaaac
1aaaag

#1435
0aaaag

#1440
1aaaag

#1445
0aaaag

#1450
1aaaag

#1455
0aaaag

#1460
1aaaag

#1465
0aaaag

#1470
1aaaag

#1475
0aaaag

#1480
1aaaag

#1485
0aaaag

#1490
1aaaag

#1495
0aaaag

#1500
1aaaag

#1505
0aaaag

#1510
1aaaag

#1515
0aaaag

#1520
1aaaag

#1525
0aaaag

#1530
1aaaag

#1535
0aaaag

#1540
1aaaag

#1545
0aaaag

#1550
1aaaag

#1555
0aaaag

#1560
1aaaag

#1565
0aaaag

#1570
1aaaag

#1575
0aaaag

#1580
b1000 aaaae
1aaaag

#1585
0aaaag

#1590
1aaaag

#1595
0aaaag

#1600
0aaaaa
1aaaab
1aaaag

#1605
0aaaag

#1610
1aaaaa
0aaaab
b1 aaaac
b1 aaaad
1aaaag

#1615
0aaaag

#1620
1aaaag

#1625
0aaaag

#1630
1aaaag

#1635
0aaaag

#1640
1aaaag

#1645
0aaaag

#1650
1aaaag

#1655
0aaaag

#1660
1aaaag

#1665
0aaaag

#1670
1aaaag

#1675
0aaaag

#1680
1aaaag

#1685
0aaaag

#1690
1aaaag

#1695
0aaaag

#1700
1aaaag

#1705
0aaaag

#1710
1aaaag

#1715
0aaaag

#1720
1aaaag

#1725
0aaaag

#1730
1aaaag

#1735
0aaaag

#1740
1aaaag

#1745
0aaaag

#1750
1aaaag

#1755
0aaaag

#1760
b1 aaaae
1aaaag

#1765
0aaaag

#1770
1aaaag

#1775
0aaaag

#1780
0aaaaa
1aaaab
1aaaag

#1785
0aaaag

#1790
1aaaaa
0aaaab
1aaaag

#1795
0aaaag

#1800
1aaaag

#1805
0aaaag

#1810
1aaaag

#1815
0aaaag

#1820
1aaaag

#1825
0aaaag

#1830
1aaaag

#1835
0aaaag

#1840
1aaaag

#1845
0aaaag

#1850
1aaaag

#1855
0aaaag

#1860
1aaaag

#1865
0aaaag

#1870
1aaaag

#1875
0aaaag

#1880
1aaaag

#1885
0aaaag

#1890
1aaaag

#1895
0aaaag

#1900
1aaaag

#1905
0aaaag

#1910
1aaaag

#1915
0aaaag

#1920
1aaaag

#1925
0aaaag

#1930
1aaaag

#1935
0aaaag

#1940
1aaaag

#1945
0aaaag

#1950
1aaaag

#1955
0aaaag

#1960
0aaaaa
1aaaab
1aaaag

#1965
0aaaag

#1970
1aaaaa
0aaaab
b100 aaaad
1aaaag

#1975
0aaaag

#1980
1aaaag

#1985
0aaaag

#1990
1aaaag

#1995
0aaaag

#2000
1aaaag

#2005
0aaaag

#2010
1aaaag

#2015
0aaaag

#2020
1aaaag

#2025
0aaaag

#2030
1aaaag

#2035
0aaaag

#2040
1aaaag

#2045
0aaaag

#2050
1aaaag

#2055
0aaaag

#2060
1aaaag

#2065
0aaaag

#2070
1aaaag

#2075
0aaaag

#2080
1aaaag

#2085
0aaaag

#2090
1aaaag

#2095
0aaaag

#2100
1aaaag

#2105
0aaaag

#2110
1aaaag

#2115
0aaaag

#2120
b100 aaaae
1aaaag

#2125
0aaaag

#2130
1aaaag

#2135
0aaaag

#2140
0aaaaa
1aaaab
1aaaag

#2145
0aaaag

#2150
1aaaaa
0aaaab
b100 aaaac
1aaaag

#2155
0aaaag

#2160
1aaaag

#2165
0aaaag

#2170
1aaaag

#2175
0aaaag

#2180
1aaaag

#2185
0aaaag

#2190
1aaaag

#2195
0aaaag

#2200
1aaaag

#2205
0aaaag

#2210
1aaaag

#2215
0aaaag

#2220
1aaaag

#2225
0aaaag

#2230
1aaaag

#2235
0aaaag

#2240
1aaaag

#2245
0aaaag

#2250
1aaaag

#2255
0aaaag

#2260
1aaaag

#2265
0aaaag

#2270
1aaaag

#2275
0aaaag

#2280
1aaaag

#2285
0aaaag

#2290
1aaaag

#2295
0aaaag

#2300
b10000 aaaae
1aaaag

#2305
0aaaag

#2310
1aaaag

#2315
0aaaag

#2320
0aaaaa
1aaaab
1aaaag

#2325
0aaaag

#2330
1aaaaa
0aaaab
b10000 aaaac
b10000 aaaad
1aaaag

#2335
0aaaag

#2340
1aaaag

#2345
0aaaag

#2350
1aaaag

#2355
0aaaag

#2360
1aaaag

#2365
0aaaag

#2370
1aaaag

#2375
0aaaag

#2380
1aaaag

#2385
0aaaag

#2390
1aaaag

#2395
0aaaag

#2400
1aaaag

#2405
0aaaag

#2410
1aaaag

#2415
0aaaag

#2420
1aaaag

#2425
0aaaag

#2430
1aaaag

#2435
0aaaag

#2440
1aaaag

#2445
0aaaag

#2450
1aaaag

#2455
0aaaag

#2460
1aaaag

#2465
0aaaag

#2470
1aaaag

#2475
0aaaag

#2480
b100000000 aaaae
1aaaag

#2485
0aaaag

#2490
1aaaag

#2495
0aaaag

#2500
0aaaaa
1aaaab
1aaaag

#2505
0aaaag

#2510
1aaaaa
0aaaab
b100000000 aaaac
b100000000 aaaad
1aaaag

#2515
0aaaag

#2520
1aaaag

#2525
0aaaag

#2530
1aaaag

#2535
0aaaag

#2540
1aaaag

#2545
0aaaag

#2550
1aaaag

#2555
0aaaag

#2560
1aaaag

#2565
0aaaag

#2570
1aaaag

#2575
0aaaag

#2580
1aaaag

#2585
0aaaag

#2590
1aaaag

#2595
0aaaag

#2600
1aaaag

#2605
0aaaag

#2610
1aaaag

#2615
0aaaag

#2620
1aaaag

#2625
0aaaag

#2630
1aaaag

#2635
0aaaag

#2640
1aaaag

#2645
0aaaag

#2650
1aaaag

#2655
0aaaag

#2660
b10000000000000000 aaaae
1aaaag

#2665
0aaaag

#2670
1aaaag

#2675
0aaaag

#2680
0aaaaa
1aaaab
1aaaag

#2685
0aaaag

#2690
1aaaaa
0aaaab
b10000000000000000 aaaac
b10000000000000000 aaaad
1aaaag

#2695
0aaaag

#2700
1aaaag

#2705
0aaaag

#2710
1aaaag

#2715
0aaaag

#2720
1aaaag

#2725
0aaaag

#2730
1aaaag

#2735
0aaaag

#2740
1aaaag

#2745
0aaaag

#2750
1aaaag

#2755
0aaaag

#2760
1aaaag

#2765
0aaaag

#2770
1aaaag

#2775
0aaaag

#2780
1aaaag

#2785
0aaaag

#2790
1aaaag

#2795
0aaaag

#2800
1aaaag

#2805
0aaaag

#2810
1aaaag

#2815
0aaaag

#2820
1aaaag

#2825
0aaaag

#2830
1aaaag

#2835
0aaaag

#2840
b0 aaaae
b1 aaaaf
1aaaag

#2845
0aaaag

#2850
1aaaag

#2855
0aaaag

#2860
0aaaaa
1aaaab
1aaaag

#2865
0aaaag

#2870
1aaaaa
0aaaab
b1 aaaac
b10001000110010010001010100001001 aaaad
1aaaag

#2875
0aaaag

#2880
1aaaag

#2885
0aaaag

#2890
1aaaag

#2895
0aaaag

#2900
1aaaag

#2905
0aaaag

#2910
1aaaag

#2915
0aaaag

#2920
1aaaag

#2925
0aaaag

#2930
1aaaag

#2935
0aaaag

#2940
1aaaag

#2945
0aaaag

#2950
1aaaag

#2955
0aaaag

#2960
1aaaag

#2965
0aaaag

#2970
1aaaag

#2975
0aaaag

#2980
1aaaag

#2985
0aaaag

#2990
1aaaag

#2995
0aaaag

#3000
1aaaag

#3005
0aaaag

#3010
1aaaag

#3015
0aaaag

#3020
b10001000110010010001010100001001 aaaae
b0 aaaaf
1aaaag

#3025
0aaaag

#3030
1aaaag

#3035
0aaaag

#3040
0aaaaa
1aaaab
1aaaag

#3045
0aaaag

#3050
1aaaaa
0aaaab
b1110111001101101110101011110111 aaaac
b100 aaaad
1aaaag

#3055
0aaaag

#3060
1aaaag

#3065
0aaaag

#3070
1aaaag

#3075
0aaaag

#3080
1aaaag

#3085
0aaaag

#3090
1aaaag

#3095
0aaaag

#3100
1aaaag

#3105
0aaaag

#3110
1aaaag

#3115
0aaaag

#3120
1aaaag

#3125
0aaaag

#3130
1aaaag

#3135
0aaaag

#3140
1aaaag

#3145
0aaaag

#3150
1aaaag

#3155
0aaaag

#3160
1aaaag

#3165
0aaaag

#3170
1aaaag

#3175
0aaaag

#3180
1aaaag

#3185
0aaaag

#3190
1aaaag

#3195
0aaaag

#3200
b11011100110110111010101111011100 aaaae
b1 aaaaf
1aaaag

#3205
0aaaag

#3210
1aaaag

#3215
0aaaag

#3220
0aaaaa
1aaaab
1aaaag

#3225
0aaaag

#3230
1aaaaa
0aaaab
b11 aaaac
b10001000110010010001010100001001 aaaad
1aaaag

#3235
0aaaag

#3240
1aaaag

#3245
0aaaag

#3250
1aaaag

#3255
0aaaag

#3260
1aaaag

#3265
0aaaag

#3270
1aaaag

#3275
0aaaag

#3280
1aaaag

#3285
0aaaag

#3290
1aaaag

#3295
0aaaag

#3300
1aaaag

#3305
0aaaag

#3310
1aaaag

#3315
0aaaag

#3320
1aaaag

#3325
0aaaag

#3330
1aaaag

#3335
0aaaag

#3340
1aaaag

#3345
0aaaag

#3350
1aaaag

#3355
0aaaag

#3360
1aaaag

#3365
0aaaag

#3370
1aaaag

#3375
0aaaag

#3380
b10011010010110110011111100011011 aaaae
1aaaag

#3385
0aaaag

#3390
1aaaag

#3395
0aaaag

#3400
0aaaaa
1aaaab
1aaaag

#3405
0aaaag

#3410
1aaaaa
0aaaab
b1000010100000000110110011000001 aaaac
b1000010100000000110110011000001 aaaad
1aaaag

#3415
0aaaag

#3420
1aaaag

#3425
0aaaag

#3430
1aaaag

#3435
0aaaag

#3440
1aaaag

#3445
0aaaag

#3450
1aaaag

#3455
0aaaag

#3460
1aaaag

#3465
0aaaag

#3470
1aaaag

#3475
0aaaag

#3480
1aaaag

#3485
0aaaag

#3490
1aaaag

#3495
0aaaag

#3500
1aaaag

#3505
0aaaag

#3510
1aaaag

#3515
0aaaag

#3520
1aaaag

#3525
0aaaag

#3530
1aaaag

#3535
0aaaag

#3540
1aaaag

#3545
0aaaag

#3550
1aaaag

#3555
0aaaag

#3560
b1110011001100110110100110000001 aaaae
b10001010001100111100010000000 aaaaf
1aaaag

#3565
0aaaag

#3570
1aaaag

#3575
0aaaag

#3580
0aaaaa
1aaaab
1aaaag

#3585
0aaaag

#3590
1aaaaa
0aaaab
b100000010101001101100011100101 aaaac
b10001000110010010001010100001001 aaaad
1aaaag

#3595
0aaaag

#3600
1aaaag

#3605
0aaaag

#3610
1aaaag

#3615
0aaaag

#3620
1aaaag

#3625
0aaaag

#3630
1aaaag

#3635
0aaaag

#3640
1aaaag

#3645
0aaaag

#3650
1aaaag

#3655
0aaaag

#3660
1aaaag

#3665
0aaaag

#3670
1aaaag

#3675
0aaaag

#3680
1aaaag

#3685
0aaaag

#3690
1aaaag

#3695
0aaaag

#3700
1aaaag

#3705
0aaaag

#3710
1aaaag

#3715
0aaaag

#3720
1aaaag

#3725
0aaaag

#3730
1aaaag

#3735
0aaaag

#3740
1aaaag

#3745
0aaaag

#3750
1aaaag

#3755
0aaaag

#3760
1aaaag

#3765
0aaaag

#3770
b1100100100110110100100001101 aaaae
1aaaag

#3775
0aaaag

#3780
1aaaag

#3785
0aaaag

#3790
0aaaaa
1aaaab
1aaaag

#3795
0aaaag

#3800
1aaaaa
0aaaab
b1100110101000000000000001110100 aaaac
b1100110101000000000000001110100 aaaad
1aaaag

#3805
0aaaag

#3810
1aaaag

#3815
0aaaag

#3820
1aaaag

#3825
0aaaag

#3830
1aaaag

#3835
0aaaag

#3840
1aaaag

#3845
0aaaag

#3850
1aaaag

#3855
0aaaag

#3860
1aaaag

#3865
0aaaag

#3870
1aaaag

#3875
0aaaag

#3880
1aaaag

#3885
0aaaag

#3890
1aaaag

#3895
0aaaag

#3900
1aaaag

#3905
0aaaag

#3910
1aaaag

#3915
0aaaag

#3920
1aaaag

#3925
0aaaag

#3930
1aaaag

#3935
0aaaag

#3940
1aaaag

#3945
0aaaag

#3950
b1000000000011010010010000 aaaae
b101001001000111110010001011101 aaaaf
1aaaag

#3955
0aaaag

#3960
1aaaag

#3965
0aaaag

#3970
0aaaaa
1aaaab
1aaaag

#3975
0aaaag

#3980
1aaaaa
0aaaab
b1001100111111101110010101110110 aaaac
b10001000110010010001010100001001 aaaad
1aaaag

#3985
0aaaag

#3990
1aaaag

#3995
0aaaag

#4000
1aaaag

#4005
0aaaag

#4010
1aaaag

#4015
0aaaag

#4020
1aaaag

#4025
0aaaag

#4030
1aaaag

#4035
0aaaag

#4040
1aaaag

#4045
0aaaag

#4050
1aaaag

#4055
0aaaag

#4060
1aaaag

#4065
0aaaag

#4070
1aaaag

#4075
0aaaag

#4080
1aaaag

#4085
0aaaag

#4090
1aaaag

#4095
0aaaag

#4100
1aaaag

#4105
0aaaag

#4110
1aaaag

#4115
0aaaag

#4120
1aaaag

#4125
0aaaag

#4130
b1110111011011101011111100100110 aaaae
b101001001000111110010001011100 aaaaf
1aaaag

#4135
0aaaag

#4140
1aaaag

#4145
0aaaag

#4150
0aaaaa
1aaaab
1aaaag

#4155
0aaaag

#4160
1aaaaa
0aaaab
b110010000110000001100001 aaaac
b110010000110000001100001 aaaad
1aaaag

#4165
0aaaag

#4170
1aaaag

#4175
0aaaag

#4180
1aaaag

#4185
0aaaag

#4190
1aaaag

#4195
0aaaag

#4200
1aaaag

#4205
0aaaag

#4210
1aaaag

#4215
0aaaag

#4220
1aaaag

#4225
0aaaag

#4230
1aaaag

#4235
0aaaag

#4240
1aaaag

#4245
0aaaag

#4250
1aaaag

#4255
0aaaag

#4260
1aaaag

#4265
0aaaag

#4270
1aaaag

#4275
0aaaag

#4280
1aaaag

#4285
0aaaag

#4290
1aaaag

#4295
0aaaag

#4300
1aaaag

#4305
0aaaag

#4310
b10111011110110001110010011000001 aaaae
b1001110011010110 aaaaf
1aaaag

#4315
0aaaag

#4320
1aaaag

#4325
0aaaag

#4330
0aaaaa
1aaaab
1aaaag

#4335
0aaaag

#4340
1aaaaa
0aaaab
b10010010110000111 aaaac
b10001000110010010001010100001001 aaaad
1aaaag

#4345
0aaaag

#4350
1aaaag

#4355
0aaaag

#4360
1aaaag

#4365
0aaaag

#4370
1aaaag

#4375
0aaaag

#4380
1aaaag

#4385
0aaaag

#4390
1aaaag

#4395
0aaaag

#4400
1aaaag

#4405
0aaaag

#4410
1aaaag

#4415
0aaaag

#4420
1aaaag

#4425
0aaaag

#4430
1aaaag

#4435
0aaaag

#4440
1aaaag

#4445
0aaaag

#4450
1aaaag

#4455
0aaaag

#4460
1aaaag

#4465
0aaaag

#4470
1aaaag

#4475
0aaaag

#4480
1aaaag

#4485
0aaaag

#4490
b1000111000111010110010010111111 aaaae
1aaaag

#4495
0aaaag

#4500
1aaaag

#4505
0aaaag

#4510
0aaaaa
1aaaab
1aaaag

#4515
0aaaag

#4520
1aaaaa
0aaaab
b1110100101110111000000000000010 aaaac
b1110100101110111000000000000010 aaaad
1aaaag

#4525
0aaaag

#4530
1aaaag

#4535
0aaaag

#4540
1aaaag

#4545
0aaaag

#4550
1aaaag

#4555
0aaaag

#4560
1aaaag

#4565
0aaaag

#4570
1aaaag

#4575
0aaaag

#4580
1aaaag

#4585
0aaaag

#4590
1aaaag

#4595
0aaaag

#4600
1aaaag

#4605
0aaaag

#4610
1aaaag

#4615
0aaaag

#4620
1aaaag

#4625
0aaaag

#4630
1aaaag

#4635
0aaaag

#4640
1aaaag

#4645
0aaaag

#4650
1aaaag

#4655
0aaaag

#4660
1aaaag

#4665
0aaaag

#4670
1aaaag

#4675
0aaaag

#4680
1aaaag

#4685
0aaaag

#4690
1aaaag

#4695
0aaaag

#4700
b10010111011100000000000000100 aaaae
b110101001110100111010101010110 aaaaf
1aaaag

#4705
0aaaag

#4710
1aaaag

#4715
0aaaag

#4720
0aaaaa
1aaaab
1aaaag

#4725
0aaaag

#4730
1aaaaa
0aaaab
b1100011100111101000001100101111 aaaac
b10001000110010010001010100001001 aaaad
1aaaag

#4735
0aaaag

#4740
1aaaag

#4745
0aaaag

#4750
1aaaag

#4755
0aaaag

#4760
1aaaag

#4765
0aaaag

#4770
1aaaag

#4775
0aaaag

#4780
1aaaag

#4785
0aaaag

#4790
1aaaag

#4795
0aaaag

#4800
1aaaag

#4805
0aaaag

#4810
1aaaag

#4815
0aaaag

#4820
1aaaag

#4825
0aaaag

#4830
1aaaag

#4835
0aaaag

#4840
1aaaag

#4845
0aaaag

#4850
1aaaag

#4855
0aaaag

#4860
1aaaag

#4865
0aaaag

#4870
1aaaag

#4875
0aaaag

#4880
b1111001001111000111011110100111 aaaae
b110101001110100111010101010101 aaaaf
1aaaag

#4885
0aaaag

#4890
1aaaag

#4895
0aaaag

#4900
0aaaaa
1aaaab
1aaaag

#4905
0aaaag

#4910
1aaaaa
0aaaab
b10000111010000111001101010100 aaaac
b1000 aaaad
1aaaag

#4915
0aaaag

#4920
1aaaag

#4925
0aaaag

#4930
1aaaag

#4935
0aaaag

#4940
1aaaag

#4945
0aaaag

#4950
1aaaag

#4955
0aaaag

#4960
1aaaag

#4965
0aaaag

#4970
1aaaag

#4975
0aaaag

#4980
1aaaag

#4985
0aaaag

#4990
1aaaag

#4995
0aaaag

#5000
1aaaag

#5005
0aaaag

#5010
1aaaag

#5015
0aaaag

#5020
1aaaag

#5025
0aaaag

#5030
1aaaag

#5035
0aaaag

#5040
1aaaag

#5045
0aaaag

#5050
1aaaag

#5055
0aaaag

#5060
b10000111010000111001101010100000 aaaae
b0 aaaaf
1aaaag

#5065
0aaaag

#5070
1aaaag

#5075
0aaaag

#5080
0aaaaa
1aaaab
1aaaag

#5085
0aaaag

#5090
1aaaaa
0aaaab
b10000111010000111001101010100000 aaaac
b10000111010000111001101010100000 aaaad
1aaaag

#5095
0aaaag

#5100
1aaaag

#5105
0aaaag

#5110
1aaaag

#5115
0aaaag

#5120
1aaaag

#5125
0aaaag

#5130
1aaaag

#5135
0aaaag

#5140
1aaaag

#5145
0aaaag

#5150
1aaaag

#5155
0aaaag

#5160
1aaaag

#5165
0aaaag

#5170
1aaaag

#5175
0aaaag

#5180
1aaaag

#5185
0aaaag

#5190
1aaaag

#5195
0aaaag

#5200
1aaaag

#5205
0aaaag

#5210
1aaaag

#5215
0aaaag

#5220
1aaaag

#5225
0aaaag

#5230
1aaaag

#5235
0aaaag

#5240
1aaaag

#5245
0aaaag

#5250
1aaaag

#5255
0aaaag

#5260
1aaaag

#5265
0aaaag

#5270
b1101001001001110010000000000 aaaae
b1000111011110000101111011101111 aaaaf
1aaaag

#5275
0aaaag

#5280
1aaaag

#5285
0aaaag

#5290
0aaaaa
1aaaab
1aaaag

#5295
0aaaag

#5300
1aaaaa
0aaaab
b10000101110000100111010100110010 aaaac
b10001000110010010001010100001001 aaaad
1aaaag

#5305
0aaaag

#5310
1aaaag

#5315
0aaaag

#5320
1aaaag

#5325
0aaaag

#5330
1aaaag

#5335
0aaaag

#5340
1aaaag

#5345
0aaaag

#5350
1aaaag

#5355
0aaaag

#5360
1aaaag

#5365
0aaaag

#5370
1aaaag

#5375
0aaaag

#5380
1aaaag

#5385
0aaaag

#5390
1aaaag

#5395
0aaaag

#5400
1aaaag

#5405
0aaaag

#5410
1aaaag

#5415
0aaaag

#5420
1aaaag

#5425
0aaaag

#5430
1aaaag

#5435
0aaaag

#5440
1aaaag

#5445
0aaaag

#5450
b111011101101010011100011000010 aaaae
b1000111011110000101111011101110 aaaaf
1aaaag

#5455
0aaaag

#5460
1aaaag

#5465
0aaaag

#5470
0aaaaa
1aaaab
1aaaag

#5475
0aaaag

#5480
1aaaaa
0aaaab
b1001000101001101001011000110101 aaaac
b1001000101001101001011000110101 aaaad
1aaaag

#5485
0aaaag

#5490
1aaaag

#5495
0aaaag

#5500
1aaaag

#5505
0aaaag

#5510
1aaaag

#5515
0aaaag

#5520
1aaaag

#5525
0aaaag

#5530
1aaaag

#5535
0aaaag

#5540
1aaaag

#5545
0aaaag

#5550
1aaaag

#5555
0aaaag

#5560
1aaaag

#5565
0aaaag

#5570
1aaaag

#5575
0aaaag

#5580
1aaaag

#5585
0aaaag

#5590
1aaaag

#5595
0aaaag

#5600
1aaaag

#5605
0aaaag

#5610
1aaaag

#5615
0aaaag

#5620
1aaaag

#5625
0aaaag

#5630
b11110100110111100010011011111001 aaaae
b10100100111100010000011100100 aaaaf
1aaaag

#5635
0aaaag

#5640
1aaaag

#5645
0aaaag

#5650
0aaaaa
1aaaab
1aaaag

#5655
0aaaag

#5660
1aaaaa
0aaaab
b100110100101100011111110001001 aaaac
b10001000110010010001010100001001 aaaad
1aaaag

#5665
0aaaag

#5670
1aaaag

#5675
0aaaag

#5680
1aaaag

#5685
0aaaag

#5690
1aaaag

#5695
0aaaag

#5700
1aaaag

#5705
0aaaag

#5710
1aaaag

#5715
0aaaag

#5720
1aaaag

#5725
0aaaag

#5730
1aaaag

#5735
0aaaag

#5740
1aaaag

#5745
0aaaag

#5750
1aaaag

#5755
0aaaag

#5760
1aaaag

#5765
0aaaag

#5770
1aaaag

#5775
0aaaag

#5780
1aaaag

#5785
0aaaag

#5790
1aaaag

#5795
0aaaag

#5800
1aaaag

#5805
0aaaag

#5810
b1011001000011110111100011010001 aaaae
1aaaag

#5815
0aaaag

#5820
1aaaag

#5825
0aaaag

#5830
0aaaaa
1aaaab
1aaaag

#5835
0aaaag

#5840
1aaaaa
0aaaab
b10011000001011001100100011111 aaaac
b10011000001011001100100011111 aaaad
1aaaag

#5845
0aaaag

#5850
1aaaag

#5855
0aaaag

#5860
1aaaag

#5865
0aaaag

#5870
1aaaag

#5875
0aaaag

#5880
1aaaag

#5885
0aaaag

#5890
1aaaag

#5895
0aaaag

#5900
1aaaag

#5905
0aaaag

#5910
1aaaag

#5915
0aaaag

#5920
1aaaag

#5925
0aaaag

#5930
1aaaag

#5935
0aaaag

#5940
1aaaag

#5945
0aaaag

#5950
1aaaag

#5955
0aaaag

#5960
1aaaag

#5965
0aaaag

#5970
1aaaag

#5975
0aaaag

#5980
1aaaag

#5985
0aaaag

#5990
b11110000110011000001000111000001 aaaae
b1011010011101010011011001 aaaaf
1aaaag

